EPsy 5261 - nhanes.csv
…
Rows: 500 Columns: 48
── Column specification ────────────────────────────────────────────────────────
Delimiter: ","
chr (21): gender, race, birthUSA, usCitizen, educAdult, martlStatus, incomeH...
dbl (27): id, ageYrs, sizeHousehold, sizeFamily, povertyRatio, mentHlthAvg, ...

ℹ Use `spec()` to retrieve the full column specification for this data.
ℹ Specify the column types or set `show_col_types = FALSE` to quiet this message.

# View data
nhanes

# A tibble: 500 × 48
      id gender ageYrs race           birthUSA usCitizen educAdult   martlStatus
   <dbl> <chr>   <dbl> <chr>          <chr>    <chr>     <chr>       <chr>      
 1 93721 female     60 Mexican Am     NO       YES       1 - < 9th … Married    
 2 93766 female     36 Hispanic Other NO       NO        2 - 9-11th… Divorced   
 3 93770 male       55 Hispanic Other NO       YES       1 - < 9th … Never Marr…
 4 93852 female     45 Other          YES      YES       4 - Some C… Live with …
 5 93890 male       27 Asian          YES      YES       5 - Colleg… Never Marr…
 6 93899 male       67 White          YES      YES       2 - 9-11th… Married    
 7 93906 male       39 Mexican Am     YES      YES       2 - 9-11th… Married    
 8 93937 male       30 White          YES      YES       4 - Some C… Live with …
 9 93969 female     33 White          YES      YES       5 - Colleg… Separated  
10 93982 female     57 White          NO       YES       5 - Colleg… Divorced   
# ℹ 490 more rows
# ℹ 40 more variables: sizeHousehold <dbl>, sizeFamily <dbl>,
#   incomeHousehold <chr>, incomeFamily <chr>, povertyRatio <dbl>,
#   mhInterest <chr>, mhDepress <chr>, mhSleep <chr>, mhTired <chr>,
#   mhAppetite <chr>, mhFeelBad <chr>, mhConcentrate <chr>, mhSpeech <chr>,
#   mhHurtSelf <chr>, mhDoWork <chr>, mentHlthAvg <dbl>, vigWork <dbl>,
#   modWork <dbl>, modVigWork <dbl>, walkBike <dbl>, vigExercise <dbl>, …
…
